Discrep_Patterns – Representation Study
…
s1 <- readRDS(here::here("data/s1_processed.rds"))
s2_long <- readRDS(here::here("data/s2_processed.rds"))

Display code
s1 %>%
  filter(appliance != "Total kWh", plan == "plan1") %>%
  group_by(appliance, state, refClass) %>%
  mutate(distinct_state_avg = n_distinct(state_avg)) %>%
  ungroup() %>%
  filter(distinct_state_avg > 1) %>%
  group_by(appliance, state_avg, state, refClass) |> arrange(id)

# A tibble: 180 × 22
# Groups:   appliance, state_avg, state, refClass [8]
      id state1     state2        refClass calc       edu   modality state id2  
   <int> <chr>      <chr>         <chr>    <chr>      <fct> <chr>    <chr> <chr>
 1    11 California Colorado      kWh      Used Calc… Grad… A        COL   R_26…
 2    12 Colorado   Texas         kWh      Used Calc… Grad… A        COL   R_ab…
 3    13 Colorado   California    kWh      Used Calc… Grad… A        COL   R_2x…
 4    14 Colorado   Texas         USD      No Calcul… Coll… D        COL   R_2V…
 5    14 Colorado   Texas         USD      No Calcul… Coll… D        TEX   R_2V…
 6    15 California Massachusetts USD      Used Calc… Coll… D        CAL   R_1L…
 7    16 Texas      Massachusetts USD      Used Calc… Coll… D        TEX   R_3g…
 8    17 Texas      Colorado      USD      No Calcul… Grad… D        TEX   R_2W…
 9    17 Texas      Colorado      USD      No Calcul… Grad… D        COL   R_2W…
10    18 California Colorado      USD      Used Calc… Grad… D        CAL   R_vB…
# ℹ 170 more rows
# ℹ 13 more variables: Duration__in_seconds_ <dbl>, appliance <chr>,
#   family <dbl>, state_avg <dbl+lbl>, plan <fct>, value <dbl>, block <dbl>,
#   pct_goal <dbl>, change <dbl>, state_p_dif <dbl>, state_f_dif <dbl>,
#   less_avg <lgl>, distinct_state_avg <int>

Display code
s1 |> group_by(state,appliance,refClass) |> 
  mutate(state_avg=as.numeric(state_avg)) |> 
  mutate(n_distinct_family=n_distinct(family),
            n_distinct_state_avg=n_distinct(state_avg), 
            # paste a string of each distinct value, separated by a comma
            distinct_family=paste(unique(family),collapse=","),
            distinct_state_avg=paste(unique(state_avg),collapse=",")) |>
  filter(n_distinct_family>1 | n_distinct_state_avg>1) 

# A tibble: 974 × 25
# Groups:   state, appliance, refClass [11]
      id state1   state2 refClass   calc            edu     modality state id2  
   <int> <chr>    <chr>  <chr>      <chr>           <fct>   <chr>    <chr> <chr>
 1     1 Colorado Texas  Percentage Used Calculator Gradua… P        TEX   R_2Q…
 2     1 Colorado Texas  Percentage Used Calculator Gradua… P        TEX   R_2Q…
 3     2 Colorado Texas  Percentage Used Calculator Colleg… P        TEX   R_2t…
 4     2 Colorado Texas  Percentage Used Calculator Colleg… P        TEX   R_2t…
 5     3 Colorado Texas  Percentage Used Calculator Colleg… P        TEX   R_3G…
 6     3 Colorado Texas  Percentage Used Calculator Colleg… P        TEX   R_3G…
 7     4 Colorado Texas  Percentage Used Calculator Colleg… P        TEX   R_Dj…
 8     4 Colorado Texas  Percentage Used Calculator Colleg… P        TEX   R_Dj…
 9     5 Colorado Texas  Percentage No Calculator   Gradua… P        TEX   R_3f…
10     5 Colorado Texas  Percentage No Calculator   Gradua… P        TEX   R_3f…
# ℹ 964 more rows
# ℹ 16 more variables: Duration__in_seconds_ <dbl>, appliance <chr>,
#   family <dbl>, state_avg <dbl>, plan <fct>, value <dbl>, block <dbl>,
#   pct_goal <dbl>, change <dbl>, state_p_dif <dbl>, state_f_dif <dbl>,
#   less_avg <lgl>, n_distinct_family <int>, n_distinct_state_avg <int>,
#   distinct_family <chr>, distinct_state_avg <chr>
…
